%YAML 1.1
%TAG !u! tag:unity3d.com,2011:
--- !u!1 &7320315868005699242
GameObject:
  m_ObjectHideFlags: 0
  m_CorrespondingSourceObject: {fileID: 0}
  m_PrefabInstance: {fileID: 0}
  m_PrefabAsset: {fileID: 0}
  serializedVersion: 6
  m_Component:
  - component: {fileID: 5662618221652442909}
  - component: {fileID: 6107792356329104654}
  m_Layer: 0
  m_Name: 01_Peeler
  m_TagString: Untagged
  m_Icon: {fileID: 0}
  m_NavMeshLayer: 0
  m_StaticEditorFlags: 0
  m_IsActive: 1
--- !u!4 &5662618221652442909
Transform:
  m_ObjectHideFlags: 0
  m_CorrespondingSourceObject: {fileID: 0}
  m_PrefabInstance: {fileID: 0}
  m_PrefabAsset: {fileID: 0}
  m_GameObject: {fileID: 7320315868005699242}
  m_LocalRotation: {x: 0, y: 0, z: 0, w: 1}
  m_LocalPosition: {x: 0, y: 0, z: 0}
  m_LocalScale: {x: 1, y: 1, z: 1}
  m_Children:
  - {fileID: 5073580990609822037}
  m_Father: {fileID: 0}
  m_RootOrder: 0
  m_LocalEulerAnglesHint: {x: 0, y: 0, z: 0}
--- !u!114 &6107792356329104654
MonoBehaviour:
  m_ObjectHideFlags: 0
  m_CorrespondingSourceObject: {fileID: 0}
  m_PrefabInstance: {fileID: 0}
  m_PrefabAsset: {fileID: 0}
  m_GameObject: {fileID: 7320315868005699242}
  m_Enabled: 1
  m_EditorHideFlags: 0
  m_Script: {fileID: 11500000, guid: 2993912bd60f7534a846e7b715892971, type: 3}
  m_Name: 
  m_EditorClassIdentifier: 
  title: Peeler
  type: 0
  proPic: {fileID: 21300000, guid: 29328c9fecf2d0a468c3d0a87530637d, type: 3}
  proPic2: {fileID: 21300000, guid: 33af066cca67ce14d9e5c19c8ccb4325, type: 3}
  videoLock: 0
  peelCost: 0
  unlockType: 0
  directCost: 0
  sheet_id: 
--- !u!1001 &5073580990610213845
PrefabInstance:
  m_ObjectHideFlags: 0
  serializedVersion: 2
  m_Modification:
    m_TransformParent: {fileID: 5662618221652442909}
    m_Modifications:
    - target: {fileID: 100000, guid: bd183e9838aa97c418faf4dd77d3088d, type: 3}
      propertyPath: m_Name
      value: peeler
      objectReference: {fileID: 0}
    - target: {fileID: 400000, guid: bd183e9838aa97c418faf4dd77d3088d, type: 3}
      propertyPath: m_LocalPosition.x
      value: 0
      objectReference: {fileID: 0}
    - target: {fileID: 400000, guid: bd183e9838aa97c418faf4dd77d3088d, type: 3}
      propertyPath: m_LocalPosition.y
      value: 0
      objectReference: {fileID: 0}
    - target: {fileID: 400000, guid: bd183e9838aa97c418faf4dd77d3088d, type: 3}
      propertyPath: m_LocalPosition.z
      value: 0
      objectReference: {fileID: 0}
    - target: {fileID: 400000, guid: bd183e9838aa97c418faf4dd77d3088d, type: 3}
      propertyPath: m_LocalRotation.x
      value: 0.7071068
      objectReference: {fileID: 0}
    - target: {fileID: 400000, guid: bd183e9838aa97c418faf4dd77d3088d, type: 3}
      propertyPath: m_LocalRotation.y
      value: -1.3734661e-14
      objectReference: {fileID: 0}
    - target: {fileID: 400000, guid: bd183e9838aa97c418faf4dd77d3088d, type: 3}
      propertyPath: m_LocalRotation.z
      value: -3.981883e-15
      objectReference: {fileID: 0}
    - target: {fileID: 400000, guid: bd183e9838aa97c418faf4dd77d3088d, type: 3}
      propertyPath: m_LocalRotation.w
      value: 0.7071068
      objectReference: {fileID: 0}
    - target: {fileID: 400000, guid: bd183e9838aa97c418faf4dd77d3088d, type: 3}
      propertyPath: m_RootOrder
      value: 0
      objectReference: {fileID: 0}
    - target: {fileID: 400000, guid: bd183e9838aa97c418faf4dd77d3088d, type: 3}
      propertyPath: m_LocalEulerAnglesHint.x
      value: 90
      objectReference: {fileID: 0}
    - target: {fileID: 400000, guid: bd183e9838aa97c418faf4dd77d3088d, type: 3}
      propertyPath: m_LocalEulerAnglesHint.y
      value: 0
      objectReference: {fileID: 0}
    - target: {fileID: 400000, guid: bd183e9838aa97c418faf4dd77d3088d, type: 3}
      propertyPath: m_LocalEulerAnglesHint.z
      value: 0
      objectReference: {fileID: 0}
    - target: {fileID: 2300000, guid: bd183e9838aa97c418faf4dd77d3088d, type: 3}
      propertyPath: m_ReceiveShadows
      value: 0
      objectReference: {fileID: 0}
    - target: {fileID: 2300000, guid: bd183e9838aa97c418faf4dd77d3088d, type: 3}
      propertyPath: m_Materials.Array.data[0]
      value: 
      objectReference: {fileID: 2100000, guid: 623d2d6c401a0534aa3e9f6344b6c461, type: 2}
    - target: {fileID: 2300000, guid: bd183e9838aa97c418faf4dd77d3088d, type: 3}
      propertyPath: m_Materials.Array.data[1]
      value: 
      objectReference: {fileID: 2100000, guid: 315f898a396ab8748b0067564f05632c, type: 2}
    m_RemovedComponents: []
  m_SourcePrefab: {fileID: 100100000, guid: bd183e9838aa97c418faf4dd77d3088d, type: 3}
--- !u!4 &5073580990609822037 stripped
Transform:
  m_CorrespondingSourceObject: {fileID: 400000, guid: bd183e9838aa97c418faf4dd77d3088d,
    type: 3}
  m_PrefabInstance: {fileID: 5073580990610213845}
  m_PrefabAsset: {fileID: 0}
