%YAML 1.1
%TAG !u! tag:unity3d.com,2011:
--- !u!1 &2707293936220016337
GameObject:
  m_ObjectHideFlags: 0
  m_CorrespondingSourceObject: {fileID: 0}
  m_PrefabInstance: {fileID: 0}
  m_PrefabAsset: {fileID: 0}
  serializedVersion: 6
  m_Component:
  - component: {fileID: 4974922025039852099}
  - component: {fileID: 4050887830835116737}
  m_Layer: 0
  m_Name: 03_Axe
  m_TagString: Untagged
  m_Icon: {fileID: 0}
  m_NavMeshLayer: 0
  m_StaticEditorFlags: 0
  m_IsActive: 1
--- !u!4 &4974922025039852099
Transform:
  m_ObjectHideFlags: 0
  m_CorrespondingSourceObject: {fileID: 0}
  m_PrefabInstance: {fileID: 0}
  m_PrefabAsset: {fileID: 0}
  m_GameObject: {fileID: 2707293936220016337}
  m_LocalRotation: {x: -0, y: -0, z: -0, w: 1}
  m_LocalPosition: {x: 0, y: 0, z: 0}
  m_LocalScale: {x: 1, y: 1, z: 1}
  m_Children:
  - {fileID: 8824209807163969775}
  m_Father: {fileID: 0}
  m_RootOrder: 0
  m_LocalEulerAnglesHint: {x: 0, y: 0, z: 0}
--- !u!114 &4050887830835116737
MonoBehaviour:
  m_ObjectHideFlags: 0
  m_CorrespondingSourceObject: {fileID: 0}
  m_PrefabInstance: {fileID: 0}
  m_PrefabAsset: {fileID: 0}
  m_GameObject: {fileID: 2707293936220016337}
  m_Enabled: 1
  m_EditorHideFlags: 0
  m_Script: {fileID: 11500000, guid: 2993912bd60f7534a846e7b715892971, type: 3}
  m_Name: 
  m_EditorClassIdentifier: 
  title: Axe
  type: 3
  proPic: {fileID: 21300000, guid: 08d17b2872071c641a8d1a0be3d8a383, type: 3}
  proPic2: {fileID: 21300000, guid: 53e0dca18256a70489b1b3e9124234d4, type: 3}
  videoLock: 0
  peelCost: 0
  unlockType: 0
  directCost: 0
  sheet_id: 
--- !u!1001 &8824209807163574895
PrefabInstance:
  m_ObjectHideFlags: 0
  serializedVersion: 2
  m_Modification:
    m_TransformParent: {fileID: 4974922025039852099}
    m_Modifications:
    - target: {fileID: 100000, guid: d17fac2681c6d91478d84f36d08a7afc, type: 3}
      propertyPath: m_Name
      value: Axe
      objectReference: {fileID: 0}
    - target: {fileID: 100000, guid: d17fac2681c6d91478d84f36d08a7afc, type: 3}
      propertyPath: m_IsActive
      value: 1
      objectReference: {fileID: 0}
    - target: {fileID: 400000, guid: d17fac2681c6d91478d84f36d08a7afc, type: 3}
      propertyPath: m_LocalPosition.x
      value: -0.249
      objectReference: {fileID: 0}
    - target: {fileID: 400000, guid: d17fac2681c6d91478d84f36d08a7afc, type: 3}
      propertyPath: m_LocalPosition.y
      value: 0.101
      objectReference: {fileID: 0}
    - target: {fileID: 400000, guid: d17fac2681c6d91478d84f36d08a7afc, type: 3}
      propertyPath: m_LocalPosition.z
      value: 0.029
      objectReference: {fileID: 0}
    - target: {fileID: 400000, guid: d17fac2681c6d91478d84f36d08a7afc, type: 3}
      propertyPath: m_LocalRotation.x
      value: 0.5674867
      objectReference: {fileID: 0}
    - target: {fileID: 400000, guid: d17fac2681c6d91478d84f36d08a7afc, type: 3}
      propertyPath: m_LocalRotation.y
      value: 0.5674867
      objectReference: {fileID: 0}
    - target: {fileID: 400000, guid: d17fac2681c6d91478d84f36d08a7afc, type: 3}
      propertyPath: m_LocalRotation.z
      value: -0.42185172
      objectReference: {fileID: 0}
    - target: {fileID: 400000, guid: d17fac2681c6d91478d84f36d08a7afc, type: 3}
      propertyPath: m_LocalRotation.w
      value: 0.42185172
      objectReference: {fileID: 0}
    - target: {fileID: 400000, guid: d17fac2681c6d91478d84f36d08a7afc, type: 3}
      propertyPath: m_RootOrder
      value: 0
      objectReference: {fileID: 0}
    - target: {fileID: 400000, guid: d17fac2681c6d91478d84f36d08a7afc, type: 3}
      propertyPath: m_LocalEulerAnglesHint.x
      value: 106.747986
      objectReference: {fileID: 0}
    - target: {fileID: 400000, guid: d17fac2681c6d91478d84f36d08a7afc, type: 3}
      propertyPath: m_LocalEulerAnglesHint.y
      value: 0
      objectReference: {fileID: 0}
    - target: {fileID: 400000, guid: d17fac2681c6d91478d84f36d08a7afc, type: 3}
      propertyPath: m_LocalEulerAnglesHint.z
      value: -90
      objectReference: {fileID: 0}
    - target: {fileID: 400000, guid: d17fac2681c6d91478d84f36d08a7afc, type: 3}
      propertyPath: m_LocalScale.x
      value: 100
      objectReference: {fileID: 0}
    - target: {fileID: 400000, guid: d17fac2681c6d91478d84f36d08a7afc, type: 3}
      propertyPath: m_LocalScale.y
      value: 65
      objectReference: {fileID: 0}
    - target: {fileID: 400000, guid: d17fac2681c6d91478d84f36d08a7afc, type: 3}
      propertyPath: m_LocalScale.z
      value: 65
      objectReference: {fileID: 0}
    - target: {fileID: 2300000, guid: d17fac2681c6d91478d84f36d08a7afc, type: 3}
      propertyPath: m_Materials.Array.data[0]
      value: 
      objectReference: {fileID: 2100000, guid: a2dc2591847bc354db09025c45acba91, type: 2}
    - target: {fileID: 2300000, guid: d17fac2681c6d91478d84f36d08a7afc, type: 3}
      propertyPath: m_ReceiveShadows
      value: 0
      objectReference: {fileID: 0}
    m_RemovedComponents: []
  m_SourcePrefab: {fileID: 100100000, guid: d17fac2681c6d91478d84f36d08a7afc, type: 3}
--- !u!4 &8824209807163969775 stripped
Transform:
  m_CorrespondingSourceObject: {fileID: 400000, guid: d17fac2681c6d91478d84f36d08a7afc,
    type: 3}
  m_PrefabInstance: {fileID: 8824209807163574895}
  m_PrefabAsset: {fileID: 0}
