%YAML 1.1
%TAG !u! tag:unity3d.com,2011:
--- !u!1 &53366868262445107
GameObject:
  m_ObjectHideFlags: 0
  m_CorrespondingSourceObject: {fileID: 0}
  m_PrefabInstance: {fileID: 0}
  m_PrefabAsset: {fileID: 0}
  serializedVersion: 6
  m_Component:
  - component: {fileID: 7311620225719002228}
  - component: {fileID: 2875000887928286827}
  m_Layer: 0
  m_Name: 04_Cleaver
  m_TagString: Untagged
  m_Icon: {fileID: 0}
  m_NavMeshLayer: 0
  m_StaticEditorFlags: 0
  m_IsActive: 1
--- !u!4 &7311620225719002228
Transform:
  m_ObjectHideFlags: 0
  m_CorrespondingSourceObject: {fileID: 0}
  m_PrefabInstance: {fileID: 0}
  m_PrefabAsset: {fileID: 0}
  m_GameObject: {fileID: 53366868262445107}
  m_LocalRotation: {x: -0, y: -0, z: -0, w: 1}
  m_LocalPosition: {x: 0, y: 0, z: 0}
  m_LocalScale: {x: 1, y: 1, z: 1}
  m_Children:
  - {fileID: 1674846180946334412}
  m_Father: {fileID: 0}
  m_RootOrder: 0
  m_LocalEulerAnglesHint: {x: 0, y: 0, z: 0}
--- !u!114 &2875000887928286827
MonoBehaviour:
  m_ObjectHideFlags: 0
  m_CorrespondingSourceObject: {fileID: 0}
  m_PrefabInstance: {fileID: 0}
  m_PrefabAsset: {fileID: 0}
  m_GameObject: {fileID: 53366868262445107}
  m_Enabled: 1
  m_EditorHideFlags: 0
  m_Script: {fileID: 11500000, guid: 2993912bd60f7534a846e7b715892971, type: 3}
  m_Name: 
  m_EditorClassIdentifier: 
  title: Cleaver
  type: 4
  proPic: {fileID: 21300000, guid: 1bacf25b7d107ee45b322061a34b192d, type: 3}
  proPic2: {fileID: 21300000, guid: fc0c2617cfaf993429968f7b87048565, type: 3}
  videoLock: 0
  peelCost: 0
  unlockType: 0
  directCost: 0
  sheet_id: 
--- !u!1001 &1674846180946724940
PrefabInstance:
  m_ObjectHideFlags: 0
  serializedVersion: 2
  m_Modification:
    m_TransformParent: {fileID: 7311620225719002228}
    m_Modifications:
    - target: {fileID: 100000, guid: f6465b7cd3cd09e44b88c7475a5ad9f7, type: 3}
      propertyPath: m_Name
      value: Cleaver
      objectReference: {fileID: 0}
    - target: {fileID: 100000, guid: f6465b7cd3cd09e44b88c7475a5ad9f7, type: 3}
      propertyPath: m_IsActive
      value: 1
      objectReference: {fileID: 0}
    - target: {fileID: 400000, guid: f6465b7cd3cd09e44b88c7475a5ad9f7, type: 3}
      propertyPath: m_LocalPosition.x
      value: -0.187
      objectReference: {fileID: 0}
    - target: {fileID: 400000, guid: f6465b7cd3cd09e44b88c7475a5ad9f7, type: 3}
      propertyPath: m_LocalPosition.y
      value: 0.049
      objectReference: {fileID: 0}
    - target: {fileID: 400000, guid: f6465b7cd3cd09e44b88c7475a5ad9f7, type: 3}
      propertyPath: m_LocalPosition.z
      value: 0.022
      objectReference: {fileID: 0}
    - target: {fileID: 400000, guid: f6465b7cd3cd09e44b88c7475a5ad9f7, type: 3}
      propertyPath: m_LocalRotation.x
      value: 0.59129745
      objectReference: {fileID: 0}
    - target: {fileID: 400000, guid: f6465b7cd3cd09e44b88c7475a5ad9f7, type: 3}
      propertyPath: m_LocalRotation.y
      value: 0.556283
      objectReference: {fileID: 0}
    - target: {fileID: 400000, guid: f6465b7cd3cd09e44b88c7475a5ad9f7, type: 3}
      propertyPath: m_LocalRotation.z
      value: -0.4328927
      objectReference: {fileID: 0}
    - target: {fileID: 400000, guid: f6465b7cd3cd09e44b88c7475a5ad9f7, type: 3}
      propertyPath: m_LocalRotation.w
      value: 0.39181694
      objectReference: {fileID: 0}
    - target: {fileID: 400000, guid: f6465b7cd3cd09e44b88c7475a5ad9f7, type: 3}
      propertyPath: m_RootOrder
      value: 0
      objectReference: {fileID: 0}
    - target: {fileID: 400000, guid: f6465b7cd3cd09e44b88c7475a5ad9f7, type: 3}
      propertyPath: m_LocalEulerAnglesHint.x
      value: 109.093994
      objectReference: {fileID: 0}
    - target: {fileID: 400000, guid: f6465b7cd3cd09e44b88c7475a5ad9f7, type: 3}
      propertyPath: m_LocalEulerAnglesHint.y
      value: 13.436996
      objectReference: {fileID: 0}
    - target: {fileID: 400000, guid: f6465b7cd3cd09e44b88c7475a5ad9f7, type: 3}
      propertyPath: m_LocalEulerAnglesHint.z
      value: -76.91498
      objectReference: {fileID: 0}
    - target: {fileID: 400000, guid: f6465b7cd3cd09e44b88c7475a5ad9f7, type: 3}
      propertyPath: m_LocalScale.x
      value: 70
      objectReference: {fileID: 0}
    - target: {fileID: 400000, guid: f6465b7cd3cd09e44b88c7475a5ad9f7, type: 3}
      propertyPath: m_LocalScale.y
      value: 70
      objectReference: {fileID: 0}
    - target: {fileID: 400000, guid: f6465b7cd3cd09e44b88c7475a5ad9f7, type: 3}
      propertyPath: m_LocalScale.z
      value: 70
      objectReference: {fileID: 0}
    - target: {fileID: 2300000, guid: f6465b7cd3cd09e44b88c7475a5ad9f7, type: 3}
      propertyPath: m_Materials.Array.data[0]
      value: 
      objectReference: {fileID: 2100000, guid: c02f454de8e40e44485498063b979747, type: 2}
    - target: {fileID: 2300000, guid: f6465b7cd3cd09e44b88c7475a5ad9f7, type: 3}
      propertyPath: m_ReceiveShadows
      value: 0
      objectReference: {fileID: 0}
    m_RemovedComponents: []
  m_SourcePrefab: {fileID: 100100000, guid: f6465b7cd3cd09e44b88c7475a5ad9f7, type: 3}
--- !u!4 &1674846180946334412 stripped
Transform:
  m_CorrespondingSourceObject: {fileID: 400000, guid: f6465b7cd3cd09e44b88c7475a5ad9f7,
    type: 3}
  m_PrefabInstance: {fileID: 1674846180946724940}
  m_PrefabAsset: {fileID: 0}
