%YAML 1.1
%TAG !u! tag:unity3d.com,2011:
--- !u!1 &3659780657223372163
GameObject:
  m_ObjectHideFlags: 0
  m_CorrespondingSourceObject: {fileID: 0}
  m_PrefabInstance: {fileID: 0}
  m_PrefabAsset: {fileID: 0}
  serializedVersion: 6
  m_Component:
  - component: {fileID: 4133961274241850195}
  - component: {fileID: 6498579347724820464}
  m_Layer: 0
  m_Name: 05_Pen
  m_TagString: Untagged
  m_Icon: {fileID: 0}
  m_NavMeshLayer: 0
  m_StaticEditorFlags: 0
  m_IsActive: 1
--- !u!4 &4133961274241850195
Transform:
  m_ObjectHideFlags: 0
  m_CorrespondingSourceObject: {fileID: 0}
  m_PrefabInstance: {fileID: 0}
  m_PrefabAsset: {fileID: 0}
  m_GameObject: {fileID: 3659780657223372163}
  m_LocalRotation: {x: -0, y: -0, z: -0, w: 1}
  m_LocalPosition: {x: 0, y: 0, z: 0}
  m_LocalScale: {x: 1, y: 1, z: 1}
  m_Children:
  - {fileID: 1722400767331925256}
  m_Father: {fileID: 0}
  m_RootOrder: 0
  m_LocalEulerAnglesHint: {x: 0, y: 0, z: 0}
--- !u!114 &6498579347724820464
MonoBehaviour:
  m_ObjectHideFlags: 0
  m_CorrespondingSourceObject: {fileID: 0}
  m_PrefabInstance: {fileID: 0}
  m_PrefabAsset: {fileID: 0}
  m_GameObject: {fileID: 3659780657223372163}
  m_Enabled: 1
  m_EditorHideFlags: 0
  m_Script: {fileID: 11500000, guid: 2993912bd60f7534a846e7b715892971, type: 3}
  m_Name: 
  m_EditorClassIdentifier: 
  title: Pen
  type: 5
  proPic: {fileID: 21300000, guid: b0ac7d46dd7e5034686975ae091ce940, type: 3}
  proPic2: {fileID: 21300000, guid: 61afbf9a74fa11d46856ad3699ecffd4, type: 3}
  videoLock: 0
  peelCost: 0
  unlockType: 0
  directCost: 0
  sheet_id: 
--- !u!1001 &1722400767331788680
PrefabInstance:
  m_ObjectHideFlags: 0
  serializedVersion: 2
  m_Modification:
    m_TransformParent: {fileID: 4133961274241850195}
    m_Modifications:
    - target: {fileID: 100000, guid: 6db0f13eb637a664db65e57aa29426df, type: 3}
      propertyPath: m_Name
      value: CalligraphyPen
      objectReference: {fileID: 0}
    - target: {fileID: 100000, guid: 6db0f13eb637a664db65e57aa29426df, type: 3}
      propertyPath: m_IsActive
      value: 1
      objectReference: {fileID: 0}
    - target: {fileID: 400000, guid: 6db0f13eb637a664db65e57aa29426df, type: 3}
      propertyPath: m_LocalPosition.x
      value: -0
      objectReference: {fileID: 0}
    - target: {fileID: 400000, guid: 6db0f13eb637a664db65e57aa29426df, type: 3}
      propertyPath: m_LocalPosition.y
      value: -0.2316
      objectReference: {fileID: 0}
    - target: {fileID: 400000, guid: 6db0f13eb637a664db65e57aa29426df, type: 3}
      propertyPath: m_LocalPosition.z
      value: 0.0042
      objectReference: {fileID: 0}
    - target: {fileID: 400000, guid: 6db0f13eb637a664db65e57aa29426df, type: 3}
      propertyPath: m_LocalRotation.x
      value: -0.015718516
      objectReference: {fileID: 0}
    - target: {fileID: 400000, guid: 6db0f13eb637a664db65e57aa29426df, type: 3}
      propertyPath: m_LocalRotation.y
      value: 0.7073931
      objectReference: {fileID: 0}
    - target: {fileID: 400000, guid: 6db0f13eb637a664db65e57aa29426df, type: 3}
      propertyPath: m_LocalRotation.z
      value: -0.01316432
      objectReference: {fileID: 0}
    - target: {fileID: 400000, guid: 6db0f13eb637a664db65e57aa29426df, type: 3}
      propertyPath: m_LocalRotation.w
      value: 0.706523
      objectReference: {fileID: 0}
    - target: {fileID: 400000, guid: 6db0f13eb637a664db65e57aa29426df, type: 3}
      propertyPath: m_RootOrder
      value: 0
      objectReference: {fileID: 0}
    - target: {fileID: 400000, guid: 6db0f13eb637a664db65e57aa29426df, type: 3}
      propertyPath: m_LocalEulerAnglesHint.x
      value: -0.20500001
      objectReference: {fileID: 0}
    - target: {fileID: 400000, guid: 6db0f13eb637a664db65e57aa29426df, type: 3}
      propertyPath: m_LocalEulerAnglesHint.y
      value: 90.075005
      objectReference: {fileID: 0}
    - target: {fileID: 400000, guid: 6db0f13eb637a664db65e57aa29426df, type: 3}
      propertyPath: m_LocalEulerAnglesHint.z
      value: -2.341
      objectReference: {fileID: 0}
    - target: {fileID: 400000, guid: 6db0f13eb637a664db65e57aa29426df, type: 3}
      propertyPath: m_LocalScale.x
      value: 50
      objectReference: {fileID: 0}
    - target: {fileID: 400000, guid: 6db0f13eb637a664db65e57aa29426df, type: 3}
      propertyPath: m_LocalScale.y
      value: 50
      objectReference: {fileID: 0}
    - target: {fileID: 400000, guid: 6db0f13eb637a664db65e57aa29426df, type: 3}
      propertyPath: m_LocalScale.z
      value: 50
      objectReference: {fileID: 0}
    - target: {fileID: 2300000, guid: 6db0f13eb637a664db65e57aa29426df, type: 3}
      propertyPath: m_Materials.Array.data[0]
      value: 
      objectReference: {fileID: 2100000, guid: b757aa23d3e43064eb9e8e23eb31d924, type: 2}
    - target: {fileID: 2300000, guid: 6db0f13eb637a664db65e57aa29426df, type: 3}
      propertyPath: m_ReceiveShadows
      value: 0
      objectReference: {fileID: 0}
    m_RemovedComponents: []
  m_SourcePrefab: {fileID: 100100000, guid: 6db0f13eb637a664db65e57aa29426df, type: 3}
--- !u!4 &1722400767331925256 stripped
Transform:
  m_CorrespondingSourceObject: {fileID: 400000, guid: 6db0f13eb637a664db65e57aa29426df,
    type: 3}
  m_PrefabInstance: {fileID: 1722400767331788680}
  m_PrefabAsset: {fileID: 0}
