%YAML 1.1
%TAG !u! tag:unity3d.com,2011:
--- !u!1 &4553006503312907682
GameObject:
  m_ObjectHideFlags: 0
  m_CorrespondingSourceObject: {fileID: 0}
  m_PrefabInstance: {fileID: 0}
  m_PrefabAsset: {fileID: 0}
  serializedVersion: 6
  m_Component:
  - component: {fileID: 784276175775598836}
  - component: {fileID: 7795289405367202072}
  m_Layer: 0
  m_Name: 08_Sword
  m_TagString: Untagged
  m_Icon: {fileID: 0}
  m_NavMeshLayer: 0
  m_StaticEditorFlags: 0
  m_IsActive: 1
--- !u!4 &784276175775598836
Transform:
  m_ObjectHideFlags: 0
  m_CorrespondingSourceObject: {fileID: 0}
  m_PrefabInstance: {fileID: 0}
  m_PrefabAsset: {fileID: 0}
  m_GameObject: {fileID: 4553006503312907682}
  m_LocalRotation: {x: -0, y: -0, z: -0, w: 1}
  m_LocalPosition: {x: 0, y: 0, z: 0}
  m_LocalScale: {x: 1, y: 1, z: 1}
  m_Children:
  - {fileID: 8791512919150271237}
  m_Father: {fileID: 0}
  m_RootOrder: 0
  m_LocalEulerAnglesHint: {x: 0, y: 0, z: 0}
--- !u!114 &7795289405367202072
MonoBehaviour:
  m_ObjectHideFlags: 0
  m_CorrespondingSourceObject: {fileID: 0}
  m_PrefabInstance: {fileID: 0}
  m_PrefabAsset: {fileID: 0}
  m_GameObject: {fileID: 4553006503312907682}
  m_Enabled: 1
  m_EditorHideFlags: 0
  m_Script: {fileID: 11500000, guid: 2993912bd60f7534a846e7b715892971, type: 3}
  m_Name: 
  m_EditorClassIdentifier: 
  title: Sword
  type: 8
  proPic: {fileID: 21300000, guid: b00ec23a7185b064fb3891a5f5510d0b, type: 3}
  proPic2: {fileID: 21300000, guid: d0f90a2fb77e1544ead805a9d93166ac, type: 3}
  videoLock: 0
  peelCost: 0
  unlockType: 0
  directCost: 0
  sheet_id: 
--- !u!1001 &8791512919150133637
PrefabInstance:
  m_ObjectHideFlags: 0
  serializedVersion: 2
  m_Modification:
    m_TransformParent: {fileID: 784276175775598836}
    m_Modifications:
    - target: {fileID: 100000, guid: 8c8ccdc39c3de8843ad764aaa687bd78, type: 3}
      propertyPath: m_Name
      value: MasterSword
      objectReference: {fileID: 0}
    - target: {fileID: 100000, guid: 8c8ccdc39c3de8843ad764aaa687bd78, type: 3}
      propertyPath: m_IsActive
      value: 1
      objectReference: {fileID: 0}
    - target: {fileID: 400000, guid: 8c8ccdc39c3de8843ad764aaa687bd78, type: 3}
      propertyPath: m_LocalPosition.x
      value: -0.188
      objectReference: {fileID: 0}
    - target: {fileID: 400000, guid: 8c8ccdc39c3de8843ad764aaa687bd78, type: 3}
      propertyPath: m_LocalPosition.y
      value: 0.017
      objectReference: {fileID: 0}
    - target: {fileID: 400000, guid: 8c8ccdc39c3de8843ad764aaa687bd78, type: 3}
      propertyPath: m_LocalPosition.z
      value: 0.006
      objectReference: {fileID: 0}
    - target: {fileID: 400000, guid: 8c8ccdc39c3de8843ad764aaa687bd78, type: 3}
      propertyPath: m_LocalRotation.x
      value: 0.07143989
      objectReference: {fileID: 0}
    - target: {fileID: 400000, guid: 8c8ccdc39c3de8843ad764aaa687bd78, type: 3}
      propertyPath: m_LocalRotation.y
      value: 0.071439885
      objectReference: {fileID: 0}
    - target: {fileID: 400000, guid: 8c8ccdc39c3de8843ad764aaa687bd78, type: 3}
      propertyPath: m_LocalRotation.z
      value: -0.7034887
      objectReference: {fileID: 0}
    - target: {fileID: 400000, guid: 8c8ccdc39c3de8843ad764aaa687bd78, type: 3}
      propertyPath: m_LocalRotation.w
      value: 0.7034887
      objectReference: {fileID: 0}
    - target: {fileID: 400000, guid: 8c8ccdc39c3de8843ad764aaa687bd78, type: 3}
      propertyPath: m_RootOrder
      value: 0
      objectReference: {fileID: 0}
    - target: {fileID: 400000, guid: 8c8ccdc39c3de8843ad764aaa687bd78, type: 3}
      propertyPath: m_LocalEulerAnglesHint.x
      value: 11.597
      objectReference: {fileID: 0}
    - target: {fileID: 400000, guid: 8c8ccdc39c3de8843ad764aaa687bd78, type: 3}
      propertyPath: m_LocalEulerAnglesHint.y
      value: 0
      objectReference: {fileID: 0}
    - target: {fileID: 400000, guid: 8c8ccdc39c3de8843ad764aaa687bd78, type: 3}
      propertyPath: m_LocalEulerAnglesHint.z
      value: -90.00001
      objectReference: {fileID: 0}
    - target: {fileID: 400000, guid: 8c8ccdc39c3de8843ad764aaa687bd78, type: 3}
      propertyPath: m_LocalScale.x
      value: 70
      objectReference: {fileID: 0}
    - target: {fileID: 400000, guid: 8c8ccdc39c3de8843ad764aaa687bd78, type: 3}
      propertyPath: m_LocalScale.y
      value: 65
      objectReference: {fileID: 0}
    - target: {fileID: 400000, guid: 8c8ccdc39c3de8843ad764aaa687bd78, type: 3}
      propertyPath: m_LocalScale.z
      value: 65
      objectReference: {fileID: 0}
    - target: {fileID: 2300000, guid: 8c8ccdc39c3de8843ad764aaa687bd78, type: 3}
      propertyPath: m_Materials.Array.data[0]
      value: 
      objectReference: {fileID: 2100000, guid: 88709309727997f43bd75694749e0a72, type: 2}
    - target: {fileID: 2300000, guid: 8c8ccdc39c3de8843ad764aaa687bd78, type: 3}
      propertyPath: m_ReceiveShadows
      value: 0
      objectReference: {fileID: 0}
    m_RemovedComponents: []
  m_SourcePrefab: {fileID: 100100000, guid: 8c8ccdc39c3de8843ad764aaa687bd78, type: 3}
--- !u!4 &8791512919150271237 stripped
Transform:
  m_CorrespondingSourceObject: {fileID: 400000, guid: 8c8ccdc39c3de8843ad764aaa687bd78,
    type: 3}
  m_PrefabInstance: {fileID: 8791512919150133637}
  m_PrefabAsset: {fileID: 0}
