%YAML 1.1
%TAG !u! tag:unity3d.com,2011:
--- !u!1 &7877350017584879239
GameObject:
  m_ObjectHideFlags: 0
  m_CorrespondingSourceObject: {fileID: 0}
  m_PrefabInstance: {fileID: 0}
  m_PrefabAsset: {fileID: 0}
  serializedVersion: 6
  m_Component:
  - component: {fileID: 7512418755589595778}
  - component: {fileID: 5524915752389050927}
  m_Layer: 0
  m_Name: 09_Sabre
  m_TagString: Untagged
  m_Icon: {fileID: 0}
  m_NavMeshLayer: 0
  m_StaticEditorFlags: 0
  m_IsActive: 1
--- !u!4 &7512418755589595778
Transform:
  m_ObjectHideFlags: 0
  m_CorrespondingSourceObject: {fileID: 0}
  m_PrefabInstance: {fileID: 0}
  m_PrefabAsset: {fileID: 0}
  m_GameObject: {fileID: 7877350017584879239}
  m_LocalRotation: {x: -0, y: -0, z: -0, w: 1}
  m_LocalPosition: {x: 0, y: 0, z: 0}
  m_LocalScale: {x: 1, y: 1, z: 1}
  m_Children:
  - {fileID: 6526756777327885722}
  m_Father: {fileID: 0}
  m_RootOrder: 0
  m_LocalEulerAnglesHint: {x: 0, y: 0, z: 0}
--- !u!114 &5524915752389050927
MonoBehaviour:
  m_ObjectHideFlags: 0
  m_CorrespondingSourceObject: {fileID: 0}
  m_PrefabInstance: {fileID: 0}
  m_PrefabAsset: {fileID: 0}
  m_GameObject: {fileID: 7877350017584879239}
  m_Enabled: 1
  m_EditorHideFlags: 0
  m_Script: {fileID: 11500000, guid: 2993912bd60f7534a846e7b715892971, type: 3}
  m_Name: 
  m_EditorClassIdentifier: 
  title: Sabre
  type: 9
  proPic: {fileID: 21300000, guid: 6e176f96421c412409f8620ab89ae922, type: 3}
  proPic2: {fileID: 21300000, guid: 826cfb9c86af8d742ae143bea61e741f, type: 3}
  videoLock: 0
  peelCost: 0
  unlockType: 0
  directCost: 0
  sheet_id: 
--- !u!1001 &6526756777328273178
PrefabInstance:
  m_ObjectHideFlags: 0
  serializedVersion: 2
  m_Modification:
    m_TransformParent: {fileID: 7512418755589595778}
    m_Modifications:
    - target: {fileID: 100000, guid: 6970e3d3a32855f48a43bd46f7522645, type: 3}
      propertyPath: m_Name
      value: SwordPotato
      objectReference: {fileID: 0}
    - target: {fileID: 100000, guid: 6970e3d3a32855f48a43bd46f7522645, type: 3}
      propertyPath: m_IsActive
      value: 1
      objectReference: {fileID: 0}
    - target: {fileID: 400000, guid: 6970e3d3a32855f48a43bd46f7522645, type: 3}
      propertyPath: m_LocalPosition.x
      value: -0.175
      objectReference: {fileID: 0}
    - target: {fileID: 400000, guid: 6970e3d3a32855f48a43bd46f7522645, type: 3}
      propertyPath: m_LocalPosition.y
      value: 0.018
      objectReference: {fileID: 0}
    - target: {fileID: 400000, guid: 6970e3d3a32855f48a43bd46f7522645, type: 3}
      propertyPath: m_LocalPosition.z
      value: 0.0144
      objectReference: {fileID: 0}
    - target: {fileID: 400000, guid: 6970e3d3a32855f48a43bd46f7522645, type: 3}
      propertyPath: m_LocalRotation.x
      value: 0.5645091
      objectReference: {fileID: 0}
    - target: {fileID: 400000, guid: 6970e3d3a32855f48a43bd46f7522645, type: 3}
      propertyPath: m_LocalRotation.y
      value: 0.50284755
      objectReference: {fileID: 0}
    - target: {fileID: 400000, guid: 6970e3d3a32855f48a43bd46f7522645, type: 3}
      propertyPath: m_LocalRotation.z
      value: -0.4845901
      objectReference: {fileID: 0}
    - target: {fileID: 400000, guid: 6970e3d3a32855f48a43bd46f7522645, type: 3}
      propertyPath: m_LocalRotation.w
      value: 0.44005257
      objectReference: {fileID: 0}
    - target: {fileID: 400000, guid: 6970e3d3a32855f48a43bd46f7522645, type: 3}
      propertyPath: m_RootOrder
      value: 0
      objectReference: {fileID: 0}
    - target: {fileID: 400000, guid: 6970e3d3a32855f48a43bd46f7522645, type: 3}
      propertyPath: m_LocalEulerAnglesHint.x
      value: 100.20599
      objectReference: {fileID: 0}
    - target: {fileID: 400000, guid: 6970e3d3a32855f48a43bd46f7522645, type: 3}
      propertyPath: m_LocalEulerAnglesHint.y
      value: 36.161987
      objectReference: {fileID: 0}
    - target: {fileID: 400000, guid: 6970e3d3a32855f48a43bd46f7522645, type: 3}
      propertyPath: m_LocalEulerAnglesHint.z
      value: -52.852997
      objectReference: {fileID: 0}
    - target: {fileID: 400000, guid: 6970e3d3a32855f48a43bd46f7522645, type: 3}
      propertyPath: m_LocalScale.x
      value: 60
      objectReference: {fileID: 0}
    - target: {fileID: 400000, guid: 6970e3d3a32855f48a43bd46f7522645, type: 3}
      propertyPath: m_LocalScale.y
      value: 60
      objectReference: {fileID: 0}
    - target: {fileID: 400000, guid: 6970e3d3a32855f48a43bd46f7522645, type: 3}
      propertyPath: m_LocalScale.z
      value: 60
      objectReference: {fileID: 0}
    - target: {fileID: 2300000, guid: 6970e3d3a32855f48a43bd46f7522645, type: 3}
      propertyPath: m_Materials.Array.data[0]
      value: 
      objectReference: {fileID: 2100000, guid: 71cb98a2107ce524194057ea50f148fa, type: 2}
    - target: {fileID: 2300000, guid: 6970e3d3a32855f48a43bd46f7522645, type: 3}
      propertyPath: m_ReceiveShadows
      value: 0
      objectReference: {fileID: 0}
    m_RemovedComponents: []
  m_SourcePrefab: {fileID: 100100000, guid: 6970e3d3a32855f48a43bd46f7522645, type: 3}
--- !u!4 &6526756777327885722 stripped
Transform:
  m_CorrespondingSourceObject: {fileID: 400000, guid: 6970e3d3a32855f48a43bd46f7522645,
    type: 3}
  m_PrefabInstance: {fileID: 6526756777328273178}
  m_PrefabAsset: {fileID: 0}
