%YAML 1.1
%TAG !u! tag:unity3d.com,2011:
--- !u!1 &6458415226341820516
GameObject:
  m_ObjectHideFlags: 0
  m_CorrespondingSourceObject: {fileID: 0}
  m_PrefabInstance: {fileID: 0}
  m_PrefabAsset: {fileID: 0}
  serializedVersion: 6
  m_Component:
  - component: {fileID: 2117337049087161462}
  - component: {fileID: 1668572160669826337}
  m_Layer: 0
  m_Name: 14_Bottle
  m_TagString: Untagged
  m_Icon: {fileID: 0}
  m_NavMeshLayer: 0
  m_StaticEditorFlags: 0
  m_IsActive: 1
--- !u!4 &2117337049087161462
Transform:
  m_ObjectHideFlags: 0
  m_CorrespondingSourceObject: {fileID: 0}
  m_PrefabInstance: {fileID: 0}
  m_PrefabAsset: {fileID: 0}
  m_GameObject: {fileID: 6458415226341820516}
  m_LocalRotation: {x: 0, y: 0, z: 0, w: 1}
  m_LocalPosition: {x: -0.048071653, y: 0.0077106534, z: 0.070621654}
  m_LocalScale: {x: 1, y: 1, z: 1}
  m_Children:
  - {fileID: 4603215210325893474}
  m_Father: {fileID: 0}
  m_RootOrder: 0
  m_LocalEulerAnglesHint: {x: 0, y: 0, z: 0}
--- !u!114 &1668572160669826337
MonoBehaviour:
  m_ObjectHideFlags: 0
  m_CorrespondingSourceObject: {fileID: 0}
  m_PrefabInstance: {fileID: 0}
  m_PrefabAsset: {fileID: 0}
  m_GameObject: {fileID: 6458415226341820516}
  m_Enabled: 1
  m_EditorHideFlags: 0
  m_Script: {fileID: 11500000, guid: 2993912bd60f7534a846e7b715892971, type: 3}
  m_Name: 
  m_EditorClassIdentifier: 
  title: Bottle
  type: 13
  proPic: {fileID: 21300000, guid: 08cf91bd20708e541bdc90a22fd8494d, type: 3}
  proPic2: {fileID: 21300000, guid: 2bedc41117d2d0a489c98f11b13052e9, type: 3}
  videoLock: 0
  peelCost: 0
  unlockType: 0
  directCost: 0
  sheet_id: 
--- !u!1001 &4603215210325507042
PrefabInstance:
  m_ObjectHideFlags: 0
  serializedVersion: 2
  m_Modification:
    m_TransformParent: {fileID: 2117337049087161462}
    m_Modifications:
    - target: {fileID: 100000, guid: 20a88908967774143abfe53a19ad3b31, type: 3}
      propertyPath: m_Name
      value: Bottle
      objectReference: {fileID: 0}
    - target: {fileID: 400000, guid: 20a88908967774143abfe53a19ad3b31, type: 3}
      propertyPath: m_LocalPosition.x
      value: 0
      objectReference: {fileID: 0}
    - target: {fileID: 400000, guid: 20a88908967774143abfe53a19ad3b31, type: 3}
      propertyPath: m_LocalPosition.y
      value: 0.161
      objectReference: {fileID: 0}
    - target: {fileID: 400000, guid: 20a88908967774143abfe53a19ad3b31, type: 3}
      propertyPath: m_LocalPosition.z
      value: 0.068
      objectReference: {fileID: 0}
    - target: {fileID: 400000, guid: 20a88908967774143abfe53a19ad3b31, type: 3}
      propertyPath: m_LocalRotation.x
      value: 5.2041704e-18
      objectReference: {fileID: 0}
    - target: {fileID: 400000, guid: 20a88908967774143abfe53a19ad3b31, type: 3}
      propertyPath: m_LocalRotation.y
      value: -0.07480545
      objectReference: {fileID: 0}
    - target: {fileID: 400000, guid: 20a88908967774143abfe53a19ad3b31, type: 3}
      propertyPath: m_LocalRotation.z
      value: 0.99719816
      objectReference: {fileID: 0}
    - target: {fileID: 400000, guid: 20a88908967774143abfe53a19ad3b31, type: 3}
      propertyPath: m_LocalRotation.w
      value: -0.000000008917504
      objectReference: {fileID: 0}
    - target: {fileID: 400000, guid: 20a88908967774143abfe53a19ad3b31, type: 3}
      propertyPath: m_RootOrder
      value: 0
      objectReference: {fileID: 0}
    - target: {fileID: 400000, guid: 20a88908967774143abfe53a19ad3b31, type: 3}
      propertyPath: m_LocalEulerAnglesHint.x
      value: 8.580001
      objectReference: {fileID: 0}
    - target: {fileID: 400000, guid: 20a88908967774143abfe53a19ad3b31, type: 3}
      propertyPath: m_LocalEulerAnglesHint.y
      value: 0
      objectReference: {fileID: 0}
    - target: {fileID: 400000, guid: 20a88908967774143abfe53a19ad3b31, type: 3}
      propertyPath: m_LocalEulerAnglesHint.z
      value: 179.99998
      objectReference: {fileID: 0}
    - target: {fileID: 400000, guid: 20a88908967774143abfe53a19ad3b31, type: 3}
      propertyPath: m_LocalScale.x
      value: 50
      objectReference: {fileID: 0}
    - target: {fileID: 400000, guid: 20a88908967774143abfe53a19ad3b31, type: 3}
      propertyPath: m_LocalScale.y
      value: 50
      objectReference: {fileID: 0}
    - target: {fileID: 400000, guid: 20a88908967774143abfe53a19ad3b31, type: 3}
      propertyPath: m_LocalScale.z
      value: 50
      objectReference: {fileID: 0}
    - target: {fileID: 2300000, guid: 20a88908967774143abfe53a19ad3b31, type: 3}
      propertyPath: m_Materials.Array.data[0]
      value: 
      objectReference: {fileID: 2100000, guid: d733f93470f3864448adae85ea9433a3, type: 2}
    - target: {fileID: 2300000, guid: 20a88908967774143abfe53a19ad3b31, type: 3}
      propertyPath: m_ReceiveShadows
      value: 0
      objectReference: {fileID: 0}
    m_RemovedComponents: []
  m_SourcePrefab: {fileID: 100100000, guid: 20a88908967774143abfe53a19ad3b31, type: 3}
--- !u!4 &4603215210325893474 stripped
Transform:
  m_CorrespondingSourceObject: {fileID: 400000, guid: 20a88908967774143abfe53a19ad3b31,
    type: 3}
  m_PrefabInstance: {fileID: 4603215210325507042}
  m_PrefabAsset: {fileID: 0}
