Level Id,Name,Variant,Trivia
1,Apple,,
2,Lychee,,
3,Pear,,Pears used to be called “butter fruit”
5,Onion,,
4,Potato,,
7,Peach,,
6,Pineapple,,
9,Mango,,
8,Cucumber,,
10,Tangerine,,
11,Egg Plant,,
12,Guava,,
13,Egg,,
14,Black Grape,,
15,Watermelon,,
16,Banana,,
18,Kiwi,,
17,Papaya,,
19,Pumpkin,,
20,Blue Berry,,