index,Title,unlockType,directCost,peelCost,end
0,peeler,0,3,0,
1,knife,1,1,12,
2,axe,0,6,17,
3,cleaver,1,2,19,
4,pen,0,12,20,
5,lightsaber,1,2,22,
6,machete,0,24,24,
7,sword,1,2,25,
8,sabre,0,32,27,
9,scalpel,1,3,30,
10,chainsaw,0,40,32,
11,rake,1,3,35,
12,scissors,0,50,37,
13,bottle,1,3,40,